{
    "appId": "com.recipe.ionic",
    "appName": "recipe-app",
    "bundledWebRuntime": false,
    "npmClient": "npm",
    "webDir": "www",
    "plugins": {
        "SplashScreen": {
            "launchShowDuration": 0
        }
    },
    "cordova": {}
}